SMI606: Week 9 — Multiple Logistic Regression
…
```r
conspiracy_data <- conspiracy_data %>%
  mutate(
    pred_consp_alien = predict(alien_model, 
                               type = "response", 
                               newdata = conspiracy_data)
  ) 

conspiracy_data %>%
  select(consp_alien, pred_consp_alien)
```

```
## # A tibble: 1,509 × 2
##    consp_alien pred_consp_alien
##          <dbl>            <dbl>
##  1           1            0.338
##  2           1            0.376
##  3           1            0.516
##  4           1            0.440
##  5           1            0.347
##  6           1            0.431
##  7           1            0.403
##  8           0            0.521
##  9           0           NA    
## 10           0            0.374
## # ℹ 1,499 more rows
```
…
```r
conspiracy_data <- conspiracy_data %>%
  mutate(
    pred_consp_alien = case_when(is.na(pred_consp_alien) ~ NA_real_,
                                 pred_consp_alien >= 0.5 ~ 1,
                                 TRUE ~ 0)
  )

conspiracy_data %>%
  select(consp_alien, pred_consp_alien)
```

```
## # A tibble: 1,509 × 2
##    consp_alien pred_consp_alien
##          <dbl>            <dbl>
##  1           1                0
##  2           1                0
##  3           1                1
##  4           1                0
##  5           1                0
##  6           1                0
##  7           1                0
##  8           0                1
##  9           0               NA
## 10           0                0
## # ℹ 1,499 more rows
```
…
```
## # A tibble: 300 × 2
##    tv_license tv_license_pred
##         <dbl>           <dbl>
##  1          1          0.202 
##  2          1          0.134 
##  3          1          0.644 
##  4          0          0.0302
##  5          1          0.464 
##  6          0          0.495 
##  7          1          0.936 
##  8          0          0.293 
##  9          1          0.644 
## 10          0          0.0687
## # ℹ 290 more rows
```
…
