SMI606: Week 10 — Cluster Analysis
…
]

.pull-right[

```r
museum_data_prepped <- museum_data %>%
  select(nadults, nkids, donation,
         age, giftshop_spend, cafe_spend)

museum_data_prepped
```

```
## # A tibble: 300 × 6
##    nadults nkids donation   age giftshop_spend cafe_spend
##      <dbl> <dbl>    <dbl> <dbl>          <dbl>      <dbl>
##  1       2     0       35    71           6.21       9.98
##  2       3     0       45    63           5.99      12.7 
##  3       3     0       40    66           6.54      13.6 
##  4       2     1       35    68           5.29      10.6 
##  5       1     0       30    67           5.51      14.9 
##  6       3     0       40    69           4.46       7.36
##  7       1     0       40    65           4.33      12.6 
##  8       2     0       15    72           5.68      14.5 
##  9       5     0       35    70           5.19      13.5 
## 10       4     0       45    67           3.61      12.2 
## # ℹ 290 more rows
```
…
]

.pull-right[

```r
museum_data <- museum_data %>%
  mutate(
    cluster = museum_3k$cluster
  )

museum_data
```

```
## # A tibble: 300 × 8
##    museum         nadults nkids donation   age giftshop_spend cafe_spend cluster
##    <chr>            <dbl> <dbl>    <dbl> <dbl>          <dbl>      <dbl>   <int>
##  1 Western Park …       2     0       35    71           6.21       9.98       3
##  2 Western Park …       3     0       45    63           5.99      12.7        3
##  3 Western Park …       3     0       40    66           6.54      13.6        3
##  4 Western Park …       2     1       35    68           5.29      10.6        3
##  5 Western Park …       1     0       30    67           5.51      14.9        3
##  6 Western Park …       3     0       40    69           4.46       7.36       3
##  7 Western Park …       1     0       40    65           4.33      12.6        3
##  8 Western Park …       2     0       15    72           5.68      14.5        3
##  9 Western Park …       5     0       35    70           5.19      13.5        3
## 10 Western Park …       4     0       45    67           3.61      12.2        3
## # ℹ 290 more rows
```
…
#### Can we find a general typology of Youtube viewers?

We collected a random sample of videos watched on 200 Youtube users and then recorded which types of videos they had watched in the random sample of 10 that was collected for each viewer. If the person watched a video of the genre listed, a 1 was recorded. If they did not watch a video of that genre, a 0 was recorded.

]

.pull-right-big[

```r
youtube_data
```

```
## # A tibble: 200 × 12
##    animation comedy documentaries music news  reviews sport tutorials trailers
##    <fct>     <fct>  <fct>         <fct> <fct> <fct>   <fct> <fct>     <fct>   
##  1 0         1      0             0     0     0       0     0         0       
##  2 1         0      0             0     0     1       0     0         1       
##  3 1         0      0             1     0     0       0     1         1       
##  4 1         0      0             1     0     1       0     0         0       
##  5 1         0      0             1     0     0       0     1         1       
##  6 1         0      0             1     0     0       0     0         1       
##  7 1         0      0             1     0     1       0     1         1       
##  8 1         1      0             1     0     0       0     1         0       
##  9 1         0      1             1     0     1       0     0         0       
## 10 0         1      0             1     0     0       0     0         1       
## # ℹ 190 more rows
## # ℹ 3 more variables: videoessays <fct>, videogames <fct>, vlogs <fct>
```
…
.pull-right[

```r
youtube_data_results <- youtube_data %>%
  mutate(
    hca_avg_k4 = hca_avg_k4,
    hca_comp_k4 = hca_comp_k4,
    hca_comp_k6 = hca_comp_k6
  )

youtube_data_results
```

```
## # A tibble: 200 × 15
##    animation comedy documentaries music news  reviews sport tutorials trailers
##    <fct>     <fct>  <fct>         <fct> <fct> <fct>   <fct> <fct>     <fct>   
##  1 0         1      0             0     0     0       0     0         0       
##  2 1         0      0             0     0     1       0     0         1       
##  3 1         0      0             1     0     0       0     1         1       
##  4 1         0      0             1     0     1       0     0         0       
##  5 1         0      0             1     0     0       0     1         1       
##  6 1         0      0             1     0     0       0     0         1       
##  7 1         0      0             1     0     1       0     1         1       
##  8 1         1      0             1     0     0       0     1         0       
##  9 1         0      1             1     0     1       0     0         0       
## 10 0         1      0             1     0     0       0     0         1       
## # ℹ 190 more rows
## # ℹ 6 more variables: videoessays <fct>, videogames <fct>, vlogs <fct>,
## #   hca_avg_k4 <int>, hca_comp_k4 <int>, hca_comp_k6 <int>
```
…
