SMI606: Week 2 — Types of quantification
…
```r
# Mean = ~15
# Standard deviation = ~6

idaci %>%
    mutate(
    idaci_1sd = ifelse(idaci > (15-(1*6)) & idaci < (15+(1*6)), TRUE, FALSE),
    idaci_2sd = ifelse(idaci > (15-(2*6)) & idaci < (15+(2*6)), TRUE, FALSE),
    idaci_3sd = ifelse(idaci > (15-(3*6)) & idaci < (15+(3*6)), TRUE, FALSE)
  )
```

```
## # A tibble: 317 × 5
##    lad    idaci idaci_1sd idaci_2sd idaci_3sd
##    <chr>  <dbl> <lgl>     <lgl>     <lgl>    
##  1 Bath …  10.4 TRUE      TRUE      TRUE     
##  2 Bedfo…  15.1 TRUE      TRUE      TRUE     
##  3 Black…  22.8 FALSE     TRUE      TRUE     
##  4 Black…  30.7 FALSE     FALSE     TRUE     
##  5 Bourn…  14.7 TRUE      TRUE      TRUE     
##  6 Brack…   8.9 FALSE     TRUE      TRUE     
##  7 Brigh…  15.3 TRUE      TRUE      TRUE     
##  8 Brist…  20.6 TRUE      TRUE      TRUE     
##  9 Centr…  11.4 TRUE      TRUE      TRUE     
## 10 Chesh…  10.7 TRUE      TRUE      TRUE     
## # ℹ 307 more rows
```
…
