EDC459: Week 11 — Spatial Analysis
…
### Joining social science data to spatial data

.pull-left-big[

``` r
lsoa_boundaries
```

```
## Simple feature collection with 34753 features and 6 fields
## Geometry type: MULTIPOLYGON
## Dimension:     XY
## Bounding box:  xmin: -6.418524 ymin: 49.86474 xmax: 1.762942 ymax: 55.81107
## Geodetic CRS:  WGS 84
## # A tibble: 34,753 × 7
##    objectid lsoa11cd  lsoa11nm          lsoa11nmw st_areasha
##       <dbl> <chr>     <chr>             <chr>          <dbl>
##  1        1 E01000001 City of London 0… City of …    133321.
##  2        2 E01000002 City of London 0… City of …    226191.
##  3        3 E01000003 City of London 0… City of …     57303.
##  4        4 E01000005 City of London 0… City of …    190739.
##  5        5 E01000006 Barking and Dage… Barking …    144196.
##  6        6 E01000007 Barking and Dage… Barking …    198135.
##  7        7 E01000008 Barking and Dage… Barking …    193425.
##  8        8 E01000009 Barking and Dage… Barking …    128592.
##  9        9 E01000010 Barking and Dage… Barking …    348848.
## 10       10 E01000011 Barking and Dage… Barking …     90298.
## # ℹ 34,743 more rows
## # ℹ 2 more variables: st_lengths <dbl>,
## #   geometry <MULTIPOLYGON [°]>
```
…
---

### Joining social science data to spatial data

Let's read in some non-spatial, social science-related LSOA level data.

.pull-left[

``` r
lsoa_data <- read_csv("data/lsoa_data_tidy.csv")
lsoa_data
```

```
## # A tibble: 32,844 × 10
##    lsoa_code lsoa_name idaopi_2019 percent_eg_rated
##    <chr>     <chr>           <dbl>            <dbl>
##  1 E01031349 Adur 001A         8.4             32.5
##  2 E01031350 Adur 001B        21.8             32.1
##  3 E01031351 Adur 001C         8.1             30.6
##  4 E01031352 Adur 001D         8.5             38.6
##  5 E01031370 Adur 001E        11.2             21.5
##  6 E01031374 Adur 001F         9.9             15.4
##  7 E01031338 Adur 002A         7.3             22.5
##  8 E01031339 Adur 002B         6.6             13.8
##  9 E01031340 Adur 002C         4.2             28.2
## 10 E01031365 Adur 002D        12.4             36.6
## # ℹ 32,834 more rows
## # ℹ 6 more variables: housesales_1998 <dbl>,
## #   housesales_2018 <dbl>, utla17nm <chr>,
## #   housesales_1998_quantiles <dbl>,
## #   housesales_2018_quantiles <dbl>, population <dbl>
```
…
---

### Joining social science data to spatial data

Let's read in some non-spatial, social science-related LSOA level data.

.pull-left[

``` r
lsoa_data <- read_csv("data/lsoa_data_tidy.csv")
lsoa_data
```

```
## # A tibble: 32,844 × 10
##    lsoa_code lsoa_name idaopi_2019 percent_eg_rated
##    <chr>     <chr>           <dbl>            <dbl>
##  1 E01031349 Adur 001A         8.4             32.5
##  2 E01031350 Adur 001B        21.8             32.1
##  3 E01031351 Adur 001C         8.1             30.6
##  4 E01031352 Adur 001D         8.5             38.6
##  5 E01031370 Adur 001E        11.2             21.5
##  6 E01031374 Adur 001F         9.9             15.4
##  7 E01031338 Adur 002A         7.3             22.5
##  8 E01031339 Adur 002B         6.6             13.8
##  9 E01031340 Adur 002C         4.2             28.2
## 10 E01031365 Adur 002D        12.4             36.6
## # ℹ 32,834 more rows
## # ℹ 6 more variables: housesales_1998 <dbl>,
## #   housesales_2018 <dbl>, utla17nm <chr>,
## #   housesales_1998_quantiles <dbl>,
## #   housesales_2018_quantiles <dbl>, population <dbl>
```
]

.pull-right[

``` r
lsoa_boundaries
```

```
## Simple feature collection with 34753 features and 6 fields
## Geometry type: MULTIPOLYGON
## Dimension:     XY
## Bounding box:  xmin: -6.418524 ymin: 49.86474 xmax: 1.762942 ymax: 55.81107
## Geodetic CRS:  WGS 84
## # A tibble: 34,753 × 7
##    objectid lsoa11cd  lsoa11nm          lsoa11nmw st_areasha
##       <dbl> <chr>     <chr>             <chr>          <dbl>
##  1        1 E01000001 City of London 0… City of …    133321.
##  2        2 E01000002 City of London 0… City of …    226191.
##  3        3 E01000003 City of London 0… City of …     57303.
##  4        4 E01000005 City of London 0… City of …    190739.
##  5        5 E01000006 Barking and Dage… Barking …    144196.
##  6        6 E01000007 Barking and Dage… Barking …    198135.
##  7        7 E01000008 Barking and Dage… Barking …    193425.
##  8        8 E01000009 Barking and Dage… Barking …    128592.
##  9        9 E01000010 Barking and Dage… Barking …    348848.
## 10       10 E01000011 Barking and Dage… Barking …     90298.
## # ℹ 34,743 more rows
## # ℹ 2 more variables: st_lengths <dbl>,
## #   geometry <MULTIPOLYGON [°]>
```
…
.pull-right-big[

``` r
lsoa_boundaries_c <- left_join(lsoa_boundaries, lsoa_data, by = c("lsoa11cd" = "lsoa_code"))
lsoa_boundaries_c
```

```
## Simple feature collection with 34753 features and 15 fields
## Geometry type: MULTIPOLYGON
## Dimension:     XY
## Bounding box:  xmin: -6.418524 ymin: 49.86474 xmax: 1.762942 ymax: 55.81107
## Geodetic CRS:  WGS 84
## # A tibble: 34,753 × 16
##    objectid lsoa11cd  lsoa11nm                  lsoa11nmw  st_areasha st_lengths
##       <dbl> <chr>     <chr>                     <chr>           <dbl>      <dbl>
##  1        1 E01000001 City of London 001A       City of L…    133321.      2292.
##  2        2 E01000002 City of London 001B       City of L…    226191.      2434.
##  3        3 E01000003 City of London 001C       City of L…     57303.      1142.
##  4        4 E01000005 City of London 001E       City of L…    190739.      2168.
##  5        5 E01000006 Barking and Dagenham 016A Barking a…    144196.      1936.
##  6        6 E01000007 Barking and Dagenham 015A Barking a…    198135.      2824.
##  7        7 E01000008 Barking and Dagenham 015B Barking a…    193425.      3908.
##  8        8 E01000009 Barking and Dagenham 016B Barking a…    128592.      2066.
##  9        9 E01000010 Barking and Dagenham 015C Barking a…    348848.      3098.
## 10       10 E01000011 Barking and Dagenham 016C Barking a…     90298.      1496.
## # ℹ 34,743 more rows
## # ℹ 10 more variables: geometry <MULTIPOLYGON [°]>, lsoa_name <chr>,
## #   idaopi_2019 <dbl>, percent_eg_rated <dbl>, housesales_1998 <dbl>,
## #   housesales_2018 <dbl>, utla17nm <chr>, housesales_1998_quantiles <dbl>,
## #   housesales_2018_quantiles <dbl>, population <dbl>
```
…
sheffield_data
```

```
## Simple feature collection with 345 features and 15 fields
## Geometry type: MULTIPOLYGON
## Dimension:     XY
## Bounding box:  xmin: -1.801471 ymin: 53.30457 xmax: -1.324727 ymax: 53.50314
## Geodetic CRS:  WGS 84
## # A tibble: 345 × 16
##    objectid lsoa11cd  lsoa11nm       lsoa11nmw      st_areasha st_lengths
##  *    <dbl> <chr>     <chr>          <chr>               <dbl>      <dbl>
##  1     7625 E01007823 Sheffield 069A Sheffield 069A    421798.      5358.
##  2     7626 E01007824 Sheffield 066A Sheffield 066A    345346.      3627.
##  3     7627 E01007825 Sheffield 066B Sheffield 066B   1264119.      6425.
##  4     7628 E01007826 Sheffield 066C Sheffield 066C   1051343.      6100.
##  5     7629 E01007827 Sheffield 064A Sheffield 064A   1541137.      7910.
##  6     7630 E01007828 Sheffield 059A Sheffield 059A    280466.      3537.
##  7     7631 E01007829 Sheffield 059B Sheffield 059B    443268.      3539.
##  8     7632 E01007830 Sheffield 064B Sheffield 064B    290064.      3536.
##  9     7633 E01007831 Sheffield 059C Sheffield 059C    307751.      4402.
## 10     7634 E01007832 Sheffield 059D Sheffield 059D    200169.      2267.
## # ℹ 335 more rows
## # ℹ 10 more variables: geometry <MULTIPOLYGON [°]>, lsoa_name <chr>,
## #   idaopi_2019 <dbl>, percent_eg_rated <dbl>, housesales_1998 <dbl>,
## #   housesales_2018 <dbl>, utla17nm <chr>, housesales_1998_quantiles <int>,
## #   housesales_2018_quantiles <int>, population <dbl>
```
…
sheff_cent <- left_join(sheff_cent, lsoa_data, 
          by = c("lsoa11cd" = "lsoa_code")) %>%
  mutate(housesales_1998_quantiles = ntile(housesales_1998, 20),
         housesales_2018_quantiles = ntile(housesales_2018, 20))

sheff_cent
```

```
## Simple feature collection with 345 features and 12 fields
## Geometry type: POINT
## Dimension:     XY
## Bounding box:  xmin: 425746.8 ymin: 379695.1 xmax: 444644.8 ymax: 398795.3
## Projected CRS: OSGB36 / British National Grid
## # A tibble: 345 × 13
##    objectid lsoa11cd  lsoa11nm              geometry lsoa_name      idaopi_2019
##  *    <int> <chr>     <chr>              <POINT [m]> <chr>                <dbl>
##  1     6155 E01008066 Sheffield… (433535.7 387806.6) Sheffield 028B        20.4
##  2     6156 E01008067 Sheffield… (433683.6 387664.8) Sheffield 030D        27.7
##  3     6157 E01008064 Sheffield…   (432992.2 387736) Sheffield 028A        12  
##  4     6158 E01008062 Sheffield… (436615.4 391780.3) Sheffield 013E        34  
##  5     6159 E01008063 Sheffield…   (435927.4 391785) Sheffield 011B        11.2
##  6     6160 E01008060 Sheffield… (436404.2 392473.2) Sheffield 010D        30.5
##  7     6161 E01008061 Sheffield… (436145.7 392102.4) Sheffield 011A        26.5
##  8     6162 E01008068 Sheffield… (434465.2 387552.6) Sheffield 026B        40.8
##  9     6163 E01008069 Sheffield…   (433265.3 387676) Sheffield 028C        13.7
## 10     6165 E01032585 Sheffield… (443074.4 380751.8) Sheffield 072E         7.2
## # ℹ 335 more rows
## # ℹ 7 more variables: percent_eg_rated <dbl>, housesales_1998 <dbl>,
## #   housesales_2018 <dbl>, utla17nm <chr>, housesales_1998_quantiles <int>,
## #   housesales_2018_quantiles <int>, population <dbl>
```
…
