SMI606: Week 8 — Multiple Linear Regression
…
You will often need to do some data processing before you can model, which requires plenty of practice!

---

# Dummy variables (binary)

We often need to do some tidying of our data to make sure the predictors we include in our models are appropriate (e.g. either continuous or binary categorical, or do not break any assumptions).

```r
pay_data
```

```
## # A tibble: 200 × 6
##    gender hrs_worked   pay public_pr_chr quals      happy     
##    <chr>       <dbl> <dbl> <chr>         <chr>      <chr>     
##  1 Female         27   331 Private       No quals   Happy     
##  2 Male           51  1011 Private       No quals   Happy     
##  3 Female         26   483 Private       No quals   Happy     
##  4 Female         37   398 Private       GCSE       Happy     
##  5 Male           28   678 Private       University Happy     
##  6 Male           37   714 Private       GCSE       Very happy
##  7 Female         24   871 Private       GCSE       Very happy
##  8 Female         27   567 Public        University Neutral   
##  9 Female         40   644 Private       GCSE       Happy     
## 10 Male           39   857 Private       No quals   Neutral   
## # ℹ 190 more rows
```
…
pay_data
```

```
## # A tibble: 200 × 7
##    gender hrs_worked   pay public_pr_chr quals      happy      female
##    <chr>       <dbl> <dbl> <chr>         <chr>      <chr>       <dbl>
##  1 Female         27   331 Private       No quals   Happy           1
##  2 Male           51  1011 Private       No quals   Happy           0
##  3 Female         26   483 Private       No quals   Happy           1
##  4 Female         37   398 Private       GCSE       Happy           1
##  5 Male           28   678 Private       University Happy           0
##  6 Male           37   714 Private       GCSE       Very happy      0
##  7 Female         24   871 Private       GCSE       Very happy      1
##  8 Female         27   567 Public        University Neutral         1
##  9 Female         40   644 Private       GCSE       Happy           1
## 10 Male           39   857 Private       No quals   Neutral         0
## # ℹ 190 more rows
```
…
Alternatively, we can turn our variable into a factor (if it's not already) and use `relevel` to set a reference category. This is very useful when you have lots of categories and can't be bothered to manually recode all of the non-reference categories into groups with `case_when`.

```r
pay_data <- pay_data %>%
  # Mutate creates new variables
  mutate(
    gender_fct = relevel(factor(gender), ref = "Male")
  )

pay_data
```

```
## # A tibble: 200 × 8
##    gender hrs_worked   pay public_pr_chr quals      happy      female gender_fct
##    <chr>       <dbl> <dbl> <chr>         <chr>      <chr>       <dbl> <fct>     
##  1 Female         27   331 Private       No quals   Happy           1 Female    
##  2 Male           51  1011 Private       No quals   Happy           0 Male      
##  3 Female         26   483 Private       No quals   Happy           1 Female    
##  4 Female         37   398 Private       GCSE       Happy           1 Female    
##  5 Male           28   678 Private       University Happy           0 Male      
##  6 Male           37   714 Private       GCSE       Very happy      0 Male      
##  7 Female         24   871 Private       GCSE       Very happy      1 Female    
##  8 Female         27   567 Public        University Neutral         1 Female    
##  9 Female         40   644 Private       GCSE       Happy           1 Female    
## 10 Male           39   857 Private       No quals   Neutral         0 Male      
## # ℹ 190 more rows
```
…
# Grouping values

Quite often we want to group our responses into a new variable with a smaller number of factors.

This is especially the case when we have some values with a very small number of responses, or we need to create a binary version of a multiple-item variable (which we'll see next week is very useful for logistic regression!)

For example, the `happy` (how happy are you with your current pay) variable here. 

```r
pay_data
```

```
## # A tibble: 200 × 6
##    gender hrs_worked   pay public_pr_chr quals      happy     
##    <chr>       <dbl> <dbl> <chr>         <chr>      <chr>     
##  1 Female         27   331 Private       No quals   Happy     
##  2 Male           51  1011 Private       No quals   Happy     
##  3 Female         26   483 Private       No quals   Happy     
##  4 Female         37   398 Private       GCSE       Happy     
##  5 Male           28   678 Private       University Happy     
##  6 Male           37   714 Private       GCSE       Very happy
##  7 Female         24   871 Private       GCSE       Very happy
##  8 Female         27   567 Public        University Neutral   
##  9 Female         40   644 Private       GCSE       Happy     
## 10 Male           39   857 Private       No quals   Neutral   
## # ℹ 190 more rows
```
…
```r
pay_data <- pay_data %>% 
  mutate(
    happy_bn = case_when(is.na(happy) ~ NA_character_,
                         happy == "Very happy" ~ "Happy",
                         happy == "Happy" ~ "Happy",
                         TRUE ~ "Not happy")
  )

pay_data
```

```
## # A tibble: 200 × 7
##    gender hrs_worked   pay public_pr_chr quals      happy      happy_bn 
##    <chr>       <dbl> <dbl> <chr>         <chr>      <chr>      <chr>    
##  1 Female         27   331 Private       No quals   Happy      Happy    
##  2 Male           51  1011 Private       No quals   Happy      Happy    
##  3 Female         26   483 Private       No quals   Happy      Happy    
##  4 Female         37   398 Private       GCSE       Happy      Happy    
##  5 Male           28   678 Private       University Happy      Happy    
##  6 Male           37   714 Private       GCSE       Very happy Happy    
##  7 Female         24   871 Private       GCSE       Very happy Happy    
##  8 Female         27   567 Public        University Neutral    Not happy
##  9 Female         40   644 Private       GCSE       Happy      Happy    
## 10 Male           39   857 Private       No quals   Neutral    Not happy
## # ℹ 190 more rows
```
…
